###############################################################################
#  SPR-KKR input file    Fe_DOS.inp 
#  created by xband on Thu Sep 19 00:17:32 EDT 2019
###############################################################################
 
CONTROL  DATASET     = Fe 
         ADSI        = DOS 
         POTFIL      = Fe.pot 
         PRINT = 0    
 
TAU      BZINT= POINTS  NKTAB= 250 
 
ENERGY   GRID={3}  NE={50} 
         ImE=0.01 Ry   EMIN=-0.2   EMAX=1.0 Ry
 
TASK     DOS
