0            /  the SPACEGROUP is UNKNOWN
   -0.500000000000     0.500000000000     0.500000000000 
    0.500000000000    -0.500000000000     0.500000000000 
    0.500000000000     0.500000000000    -0.500000000000 
1     NQ 
    0.000000000000     0.000000000000     0.000000000000 '  1' /           1  tauX  tauY  tauZ   
 0 0 0    magnetization direction
