###############################################################################
#  SPR-KKR input file    Fe_SCF.inp 
#  created by xband on Wed Sep 18 18:42:27 EDT 2019
###############################################################################
 
CONTROL  DATASET     = Fe 
         ADSI        = SCF 
         POTFIL      = Fe.pot 
         PRINT = 0    
 
TAU      BZINT= POINTS  NKTAB= 250 
 
ENERGY   GRID={5}  NE={32} 
         ImE=0.0 Ry   EMIN=-0.2 Ry
 
SCF      NITER=200 MIX=0.20 VXC=VWN
         TOL=0.00001  MIXOP=0.20  ISTBRY=1 
         QIONSCL=1.0 
         NOSSITER 
