           0  / No group information
    -0.5000000000     0.5000000000     0.5000000000 / A in lat.par
     0.5000000000    -0.5000000000     0.5000000000 / B in lat.par
     0.5000000000     0.5000000000    -0.5000000000 / C in lat.par
    1    1 / nsort,natom          taus                   ICL  IQ(inp) CL(inp) 
    0.0000000000    0.0000000000    0.0000000000     1       1    1         
          48  / Point symmetry operations for reciprocal sums
  1  2  3  4  5  6  7  8  9 10 11 12 13 14 15 16 17 18 19 20 21 22 23 24
 33 34 35 36 37 38 39 40 41 42 43 44 45 46 47 48 49 50 51 52 53 54 55 56
  1  1  1  1  1  1  1  1  1  1  1  1  1  1  1  1  1  1  1  1  1  1  1  1
  1  1  1  1  1  1  1  1  1  1  1  1  1  1  1  1  1  1  1  1  1  1  1  1
 +   0   ;  0   ;  0    /            1           1
 +   0   ;  Pi  ;  0    /            2           1
 +   0   ;  Pi  ;  Pi   /            3           1
 +   Pi  ;  0   ;  0    /            4           1
 +   Pi  ;Pi/2  ;Pi/2   /            5           1
 +   0   ;Pi/2  ;3Pi/2  /            6           1
 +   Pi  ;Pi/2  ;3Pi/2  /            7           1
 +   0   ;Pi/2  ;Pi/2   /            8           1
 + Pi/2  ;Pi/2  ;  0    /            9           1
 + Pi/2  ;Pi/2  ;  Pi   /           10           1
 + 3Pi/2 ;Pi/2  ;  Pi   /           11           1
 + 3Pi/2 ;Pi/2  ;  0    /           12           1
 + 3Pi/2 ;  Pi  ;  0    /           13           1
 + Pi/2  ;  0   ;  0    /           14           1
 + 3Pi/2 ;  0   ;  0    /           15           1
 + Pi/2  ;  Pi  ;  0    /           16           1
 +   0   ;Pi/2  ;  Pi   /           17           1
 +   Pi  ;Pi/2  ;  0    /           18           1
 +   0   ;Pi/2  ;  0    /           19           1
 +   Pi  ;Pi/2  ;  Pi   /           20           1
 + 3Pi/2 ;Pi/2  ;3Pi/2  /           21           1
 + 3Pi/2 ;Pi/2  ;Pi/2   /           22           1
 + Pi/2  ;Pi/2  ;Pi/2   /           23           1
 + Pi/2  ;Pi/2  ;3Pi/2  /           24           1
 -   0   ;  0   ;  0    /           33           1
 -   0   ;  Pi  ;  0    /           34           1
 -   0   ;  Pi  ;  Pi   /           35           1
 -   Pi  ;  0   ;  0    /           36           1
 -   Pi  ;Pi/2  ;Pi/2   /           37           1
 -   0   ;Pi/2  ;3Pi/2  /           38           1
 -   Pi  ;Pi/2  ;3Pi/2  /           39           1
 -   0   ;Pi/2  ;Pi/2   /           40           1
 - Pi/2  ;Pi/2  ;  0    /           41           1
 - Pi/2  ;Pi/2  ;  Pi   /           42           1
 - 3Pi/2 ;Pi/2  ;  Pi   /           43           1
 - 3Pi/2 ;Pi/2  ;  0    /           44           1
 - 3Pi/2 ;  Pi  ;  0    /           45           1
 - Pi/2  ;  0   ;  0    /           46           1
 - 3Pi/2 ;  0   ;  0    /           47           1
 - Pi/2  ;  Pi  ;  0    /           48           1
 -   0   ;Pi/2  ;  Pi   /           49           1
 -   Pi  ;Pi/2  ;  0    /           50           1
 -   0   ;Pi/2  ;  0    /           51           1
 -   Pi  ;Pi/2  ;  Pi   /           52           1
 - 3Pi/2 ;Pi/2  ;3Pi/2  /           53           1
 - 3Pi/2 ;Pi/2  ;Pi/2   /           54           1
 - Pi/2  ;Pi/2  ;Pi/2   /           55           1
 - Pi/2  ;Pi/2  ;3Pi/2  /           56           1
